refPHchs = [0]
PHcut_values = [1000,15000]
refPTchs = [0]
PTcut_values = [170,230]
refPTDchs = [2]
PTDcut_values = [-100,100]
theta_in_values = [-2,0,1,4]
hitpos_dist = 50
hitpos_values = [1,7,2,8]
evnum_values = None
